<?xml version="1.0" encoding="utf-8"?>
<!-- Generator: Adobe Illustrator 16.0.0, SVG Export Plug-In . SVG Version: 6.00 Build 0)  -->
<!DOCTYPE svg PUBLIC "-//W3C//DTD SVG 1.1//EN" "http://www.w3.org/Graphics/SVG/1.1/DTD/svg11.dtd">
<svg version="1.1" xmlns="http://www.w3.org/2000/svg" xmlns:xlink="http://www.w3.org/1999/xlink" x="0px" y="0px"
	 width="123.369px" height="38.248px" viewBox="0 0 123.369 38.248" enable-background="new 0 0 123.369 38.248"
	 xml:space="preserve">
<g id="Layer_3">
</g>
<g id="Layer_4">
</g>
<g id="Layer_1">
	<g>
		<path fill="#1D1D1B" d="M60.337,9.528l2.589-6.259l2.631,6.259H60.337z M69.656,19.34h2.287L63.853,0.081H62.71L54.535,19.34
			h1.717c1.174-2.814,2.354-5.63,3.521-8.449h6.356C67.311,13.703,68.472,16.527,69.656,19.34z"/>
		<path fill="#1D1D1B" d="M29.841,19.34v-8.69H27.77v2.671c0,2.669-2.691,4.74-5.818,4.74c-4.589,0-7.984-2.997-7.984-8.146
			c0-5.23,3.567-8.335,7.84-8.335c3.443,0,5.395,1.636,6.714,4.142l1.32-1.172C27.946,1.308,25.137,0,21.779,0
			c-5.622,0-10.183,4.141-10.183,9.915c0,5.722,4.217,9.698,10.011,9.698c2.869,0,5.445-1.444,6.393-3.214l0.636,2.941H29.841z"/>
		<path fill="#1D1D1B" d="M74.784,9.915c0,5.75,4.503,9.698,10.011,9.698c3.414,0,6.195-1.444,8.089-5.039l-1.319-0.791
			c-1.405,2.779-3.441,4.224-6.712,4.224c-3.845,0-7.698-2.779-7.698-8.2c0-5.229,3.453-8.228,7.727-8.228
			c3.386,0,5.336,1.636,6.655,4.142l1.319-1.172C90.962,1.308,88.151,0,84.853,0C79.23,0,74.784,4.141,74.784,9.915"/>
		<path fill="#1D1D1B" d="M97.777,19.34h13.131v-1.442H99.875v-7.628c1.296,0,2.591,0,3.885,0c1.394,0,1.262,0,2.654,0V8.825
			c-1.4,0-1.275,0-2.673,0c-1.289,0-2.577,0-3.866,0V1.716h10.707V0.272H97.777V19.34z"/>
		<path fill="#1D1D1B" d="M37.913,1.663h4.549c2.886,0,4.983,0.981,4.983,3.732c0,3.159-2.369,4.06-4.983,4.06h-4.549V1.663z
			 M37.913,10.814h1.293c2.726,0,4.321,0.995,5.419,3.024c1.472,2.72,1.934,4.267,3.418,5.501h2.664
			c-1.963-2.037-2.044-2.624-3.664-5.692c-0.949-1.796-2.934-3.078-5.357-3.405l0.736,0.015c4.164,0,7.34-1.322,7.34-4.837
			c0-3.814-3.16-5.148-7.083-5.148h-6.864V19.34h2.099V10.814z"/>
		<g>
			<path fill="#1D1D1B" d="M122.468,35.958c0,1.069-0.879,1.626-2.091,1.626c-1.021,0-2.076-0.44-2.754-1.582l-0.547,0.419
				c0.535,1.115,1.877,1.827,3.301,1.827c1.568,0,2.992-0.901,2.992-2.518c0-1.615-1.537-2.3-2.802-2.629
				c-1.056-0.275-2.148-0.599-2.148-1.624c0-0.589,0.606-1.135,1.722-1.135c1.165,0,1.596,0.65,1.803,1.608l0.836-0.156
				c-0.283-1.218-1.071-2.099-2.639-2.095c-1.601,0.004-2.624,0.926-2.624,1.934c0,1.478,1.374,1.954,2.813,2.33
				C121.271,34.207,122.468,34.734,122.468,35.958"/>
			<path fill="#1D1D1B" d="M99.376,29.818h-0.914v8.311h0.914v-3.134l0.712-0.699c0.426,0,0.751,0.03,1.103,0.311
				c1.398,1.122,1.424,2.524,2.638,3.523h1.16c-1.459-1.102-1.84-3.568-3.288-4.185c-0.351-0.149-0.698-0.22-0.996-0.255
				l3.938-3.871h-1.01l-4.257,4.322V29.818z"/>
			<path fill="#1D1D1B" d="M77.138,34.022c0,2.502,1.964,4.226,4.364,4.226c1.488,0,2.699-0.629,3.526-2.195l-0.576-0.347
				c-0.613,1.212-1.5,1.843-2.926,1.843c-1.675,0-3.355-1.211-3.355-3.574c0-2.279,1.506-3.586,3.368-3.586
				c1.477,0,2.325,0.712,2.901,1.804l0.573-0.511c-0.823-1.412-2.049-1.982-3.487-1.982C79.076,29.699,77.138,31.504,77.138,34.022"
				/>
			<path fill="#1D1D1B" d="M90.039,33.854l1.129-2.73l1.146,2.73H90.039z M94.102,38.129h0.996l-3.525-8.394h-0.498l-3.563,8.394
				h0.748c0.512-1.23,1.026-2.454,1.535-3.681h2.77C93.079,35.674,93.586,36.906,94.102,38.129z"/>
			<path fill="#1D1D1B" d="M108.548,38.129h5.724v-0.628h-4.81v-3.325c1.172,0,2.343,0,3.513,0v-0.629c-1.17,0-2.341,0-3.513,0v-3.1
				h4.666v-0.628h-5.58V38.129z"/>
			<path fill="#1D1D1B" d="M47.466,29.818v5.01c0,1.89-0.709,2.72-2.241,2.72c-1.508,0-2.275-0.937-2.275-2.732v-4.999h-0.914v5.14
				c0,1.971,0.839,3.29,3.166,3.29c1.793,0,2.988-1.128,2.988-3.275v-5.154H47.466z"/>
			<path fill="#1D1D1B" d="M27.943,29.818v5.01c0,1.89-0.709,2.72-2.24,2.72c-1.508,0-2.276-0.937-2.276-2.732v-4.999h-0.914v5.14
				c0,1.971,0.839,3.29,3.166,3.29c1.793,0,2.987-1.128,2.987-3.275v-5.154H27.943z"/>
			<path fill="#1D1D1B" d="M10.603,33.975c0,2.374,1.8,4.273,4.29,4.273c2.488,0,4.289-1.9,4.289-4.273
				c0-2.376-1.801-4.275-4.289-4.275C12.402,29.699,10.603,31.599,10.603,33.975 M11.636,33.975c0-2.222,1.298-3.667,3.257-3.667
				s3.257,1.446,3.257,3.667c0,2.219-1.298,3.669-3.257,3.669S11.636,36.194,11.636,33.975z"/>
			<path fill="#1D1D1B" d="M0,34.022c0,2.502,1.964,4.226,4.363,4.226c1.488,0,2.701-0.629,3.525-2.195l-0.574-0.347
				c-0.612,1.212-1.5,1.843-2.926,1.843c-1.675,0-3.355-1.211-3.355-3.574c0-2.279,1.505-3.586,3.368-3.586
				c1.475,0,2.325,0.712,2.9,1.804l0.575-0.511c-0.825-1.412-2.051-1.982-3.488-1.982C1.939,29.699,0,31.504,0,34.022"/>
			<path fill="#1D1D1B" d="M34.852,38.129h0.915v-7.328c0.427,0.061,0.854,0.101,1.276,0.077c0.605-0.03,1.201-0.233,1.754-0.54
				v-0.702c-0.551,0.306-1.144,0.506-1.746,0.539c-1.199,0.066-2.459-0.377-3.576-0.375c-0.6,0.001-1.163,0.166-1.651,0.452v0.702
				c0.485-0.283,1.042-0.451,1.636-0.454c0.445,0,0.914,0.072,1.393,0.149V38.129z"/>
			<polygon fill="#1D1D1B" points="62.6,38.129 68.323,38.129 68.323,37.501 63.514,37.501 63.514,34.176 67.028,34.176 
				67.028,33.546 63.514,33.546 63.514,30.446 68.181,30.446 68.181,29.818 62.6,29.818 			"/>
			<path fill="#1D1D1B" d="M53.228,30.423h1.983c1.258,0,2.173,0.426,2.173,1.627c0,1.377-1.034,1.767-2.173,1.767h-1.983V30.423z
				 M53.228,34.413h0.564c1.188,0,1.883,0.434,2.362,1.318c0.642,1.187,0.842,1.861,1.489,2.399h1.162
				c-0.855-0.889-0.892-1.144-1.598-2.481c-0.413-0.782-1.278-1.341-2.335-1.485l0.32,0.007c1.815,0,3.2-0.577,3.2-2.109
				c0-1.662-1.378-2.245-3.087-2.245h-2.993v8.313h0.914V34.413z"/>
		</g>
	</g>
</g>
<g id="guides" display="none">
	<g display="inline">
		
			<rect x="-36.027" y="-3922.28" fill="none" stroke="#CCCCCC" stroke-width="0.9755" stroke-miterlimit="10" width="98.332" height="11857.323"/>
		
			<rect x="62.305" y="-3922.28" fill="none" stroke="#CCCCCC" stroke-width="0.9755" stroke-miterlimit="10" width="98.334" height="11857.323"/>
	</g>
</g>
</svg>
